11111 11111 11111 33334 44444
11111 11111 11113 33344 44444
11111 11111 11111 33334 44444
11111 11111 11133 33333 44444
11111 11111 11333 33334 44444

11111 11111 11133 33333 44444 
11111 11111 11333 33113 44444
11111 11111 11333 31113 33444
11111 11111 11133 33113 31334
11111 11111 11133 33333 33333

33111 11111 11111 11333 33333
33331 11111 11111 11133 33333
33333 33111 11111 11111 11333
22223 33333 11111 11111 11113
22222 33333 11111 11111 11111

22222 22334 11111 11111 11114
22222 22233 11111 11111 11144
22222 22331 11111 11111 44444
22222 22233 33111 11111 44444
22222 22222 22222 22444 44444

22222 22222 22222 44444 44444	
22222 22222 44444 44444 44444
22222 22222 22244 44444 44444
22222 22222 22222 22222 22222 
22222 22222 22222 22222 22222 
